%YAML 1.1
%TAG !u! tag:unity3d.com,2011:
--- !u!114 &11400000
MonoBehaviour:
  m_ObjectHideFlags: 0
  m_CorrespondingSourceObject: {fileID: 0}
  m_PrefabInstance: {fileID: 0}
  m_PrefabAsset: {fileID: 0}
  m_GameObject: {fileID: 0}
  m_Enabled: 1
  m_EditorHideFlags: 0
  m_Script: {fileID: 11500000, guid: 48657cf25b48c884ca40dba9bb9d5335, type: 3}
  m_Name: Billiard Ball
  m_EditorClassIdentifier: 
  id: 2
  caption: Billiard Ball
  sprite: {fileID: 21300000, guid: 7a4a1a63be3fae143926bb9ab00eedee, type: 3}
  connects:
  - {fileID: 11400000, guid: f45f3a277fa8dc84f84108a5adb074d4, type: 2}
  - {fileID: 11400000, guid: 80d12fa8594b02c489a671ebb8ec8460, type: 2}
  - {fileID: 11400000, guid: 5acf00659c9d16b47bd49fbbca6d0049, type: 2}
