%YAML 1.1
%TAG !u! tag:unity3d.com,2011:
--- !u!114 &11400000
MonoBehaviour:
  m_ObjectHideFlags: 0
  m_CorrespondingSourceObject: {fileID: 0}
  m_PrefabInstance: {fileID: 0}
  m_PrefabAsset: {fileID: 0}
  m_GameObject: {fileID: 0}
  m_Enabled: 1
  m_EditorHideFlags: 0
  m_Script: {fileID: 11500000, guid: 48657cf25b48c884ca40dba9bb9d5335, type: 3}
  m_Name: Brush
  m_EditorClassIdentifier: 
  id: 6
  caption: Brush
  sprite: {fileID: 21300000, guid: 2ba64dfc7747fff4997f92eec5dec4df, type: 3}
  connects:
  - {fileID: 11400000, guid: f430eee2fc10aa140825745e501854e0, type: 2}
  - {fileID: 11400000, guid: fc2bba50651b7f34aa12cdf5ffc204a6, type: 2}
  - {fileID: 11400000, guid: a7b7a1cc3a6bce846820591ddd8d0a1a, type: 2}
