%YAML 1.1
%TAG !u! tag:unity3d.com,2011:
--- !u!114 &11400000
MonoBehaviour:
  m_ObjectHideFlags: 0
  m_CorrespondingSourceObject: {fileID: 0}
  m_PrefabInstance: {fileID: 0}
  m_PrefabAsset: {fileID: 0}
  m_GameObject: {fileID: 0}
  m_Enabled: 1
  m_EditorHideFlags: 0
  m_Script: {fileID: 11500000, guid: 48657cf25b48c884ca40dba9bb9d5335, type: 3}
  m_Name: Card
  m_EditorClassIdentifier: 
  id: 9
  caption: Card
  sprite: {fileID: 21300000, guid: 52443c41aa2c04547bc0a79e4c3bb330, type: 3}
  connects:
  - {fileID: 11400000, guid: 14c317525e92bde4287d0e5398e8e83e, type: 2}
  - {fileID: 11400000, guid: 27c20a910e1a2294895ddb8fe121736d, type: 2}
  - {fileID: 11400000, guid: 58ac8785d28f8aa45bd069da52a97675, type: 2}
