%YAML 1.1
%TAG !u! tag:unity3d.com,2011:
--- !u!114 &11400000
MonoBehaviour:
  m_ObjectHideFlags: 0
  m_CorrespondingSourceObject: {fileID: 0}
  m_PrefabInstance: {fileID: 0}
  m_PrefabAsset: {fileID: 0}
  m_GameObject: {fileID: 0}
  m_Enabled: 1
  m_EditorHideFlags: 0
  m_Script: {fileID: 11500000, guid: 48657cf25b48c884ca40dba9bb9d5335, type: 3}
  m_Name: Eye Patch
  m_EditorClassIdentifier: 
  id: 16
  caption: Eye Patch
  sprite: {fileID: 21300000, guid: 2f37b1a98bb36a54c98a3be893950ae8, type: 3}
  connects:
  - {fileID: 11400000, guid: 5acf00659c9d16b47bd49fbbca6d0049, type: 2}
  - {fileID: 11400000, guid: 4505cc18179174e4b82b1fceba039337, type: 2}
  - {fileID: 11400000, guid: 58ac8785d28f8aa45bd069da52a97675, type: 2}
