%YAML 1.1
%TAG !u! tag:unity3d.com,2011:
--- !u!114 &11400000
MonoBehaviour:
  m_ObjectHideFlags: 0
  m_CorrespondingSourceObject: {fileID: 0}
  m_PrefabInstance: {fileID: 0}
  m_PrefabAsset: {fileID: 0}
  m_GameObject: {fileID: 0}
  m_Enabled: 1
  m_EditorHideFlags: 0
  m_Script: {fileID: 11500000, guid: 48657cf25b48c884ca40dba9bb9d5335, type: 3}
  m_Name: Hookah
  m_EditorClassIdentifier: 
  id: 21
  caption: Hookah
  sprite: {fileID: 21300000, guid: 7caf8f9724b546b4d946928c0060a50a, type: 3}
  connects:
  - {fileID: 11400000, guid: 4009233c4da35ec4dbf5960dc6077fb2, type: 2}
  - {fileID: 11400000, guid: 29fde0ea6fdf4704cb696570a281c0cf, type: 2}
  - {fileID: 11400000, guid: 4505cc18179174e4b82b1fceba039337, type: 2}
  - {fileID: 11400000, guid: 06ac0e4f7cf7acd48a481142cf144f71, type: 2}
