%YAML 1.1
%TAG !u! tag:unity3d.com,2011:
--- !u!114 &11400000
MonoBehaviour:
  m_ObjectHideFlags: 0
  m_CorrespondingSourceObject: {fileID: 0}
  m_PrefabInstance: {fileID: 0}
  m_PrefabAsset: {fileID: 0}
  m_GameObject: {fileID: 0}
  m_Enabled: 1
  m_EditorHideFlags: 0
  m_Script: {fileID: 11500000, guid: 48657cf25b48c884ca40dba9bb9d5335, type: 3}
  m_Name: Oriental Glyph
  m_EditorClassIdentifier: 
  id: 28
  caption: Oriental Glyph
  sprite: {fileID: 21300000, guid: 1f7ca931b4d0f304181fd5d9bb0a6f62, type: 3}
  connects:
  - {fileID: 11400000, guid: de67acadb5678dc4bbbfb2c8cca03cb4, type: 2}
  - {fileID: 11400000, guid: 0a7deafe08b1d664089cf75eaafe8c18, type: 2}
  - {fileID: 11400000, guid: 5945246434840dd4d96efc41a08a2d2f, type: 2}
