%YAML 1.1
%TAG !u! tag:unity3d.com,2011:
--- !u!114 &11400000
MonoBehaviour:
  m_ObjectHideFlags: 0
  m_CorrespondingSourceObject: {fileID: 0}
  m_PrefabInstance: {fileID: 0}
  m_PrefabAsset: {fileID: 0}
  m_GameObject: {fileID: 0}
  m_Enabled: 1
  m_EditorHideFlags: 0
  m_Script: {fileID: 11500000, guid: 48657cf25b48c884ca40dba9bb9d5335, type: 3}
  m_Name: Racoon
  m_EditorClassIdentifier: 
  id: 32
  caption: Racoon
  sprite: {fileID: 21300000, guid: 5edcbfc744e3400468765d5b6c7219f4, type: 3}
  connects:
  - {fileID: 11400000, guid: fa23a37bd9822e240b48df8ada4f1f87, type: 2}
  - {fileID: 11400000, guid: a74dee2a492ea254ebfd3a1fa707e69a, type: 2}
  - {fileID: 11400000, guid: 73bd6b30978779249bcf887c8b5522ba, type: 2}
